Math208-A2
…
Produce a summary table containing counts and proportions of biopic subjects per year for each sex/white-nonwehite-NA factor combination.

library(dplyr)

df_per_year <- df %>% group_by(year_release) %>% mutate(count=n()) %>%
  mutate(subject_race = ifelse(is.na(subject_race),"Unknown race (NA)",ifelse(subject_race=="White",subject_race,"People of colour")) ) %>%
  select(year_release,subject_race,subject_sex,count)
#df_per_year
df_summary <- df_per_year %>% group_by(year_release,subject_sex,subject_race) %>% mutate(number = n(),proportion=number/count)

df_summary <- df_summary[order(df_summary$year_release),] %>% unique(.) %>% select(year_release,subject_sex,subject_race,number,proportion)
df_summary

## # A tibble: 281 x 5
## # Groups:   year_release, subject_sex, subject_race [281]
##    year_release subject_sex subject_race     number proportion
##           <int> <chr>       <chr>             <int>      <dbl>
##  1         1915 Male        White                 1      1    
##  2         1927 Male        People of colour      1      1    
##  3         1929 Male        White                 1      1    
##  4         1930 Male        White                 1      1    
##  5         1933 Female      White                 1      0.5  
##  6         1933 Male        White                 1      0.5  
##  7         1934 Female      People of colour      2      0.286
##  8         1934 Male        White                 3      0.429
##  9         1934 Male        People of colour      2      0.286
## 10         1935 Female      White                 1      1    
## # ... with 271 more rows
…
print(df_grouped_overt)

## # A tibble: 33 x 6
## # Groups:   group [1]
##    relwt glufast glutest instest  sspg group         
##    <dbl>   <int>   <int>   <int> <int> <fct>         
##  1  0.92     300    1468      28   455 Overt_Diabetic
##  2  0.86     303    1487      23   327 Overt_Diabetic
##  3  0.85     125     714     232   279 Overt_Diabetic
##  4  0.83     280    1470      54   382 Overt_Diabetic
##  5  0.85     216    1113      81   378 Overt_Diabetic
##  6  1.06     190     972      87   374 Overt_Diabetic
##  7  1.06     151     854      76   260 Overt_Diabetic
##  8  0.92     303    1364      42   346 Overt_Diabetic
##  9  1.2      173     832     102   319 Overt_Diabetic
## 10  1.04     203     967     138   351 Overt_Diabetic
## # ... with 23 more rows
